{"name":"Solicitud usuarios","id":"prueba-del-servicio-get;solicitud-usuarios","scenarioId":"getUsersRequest:Solicitud usuarios","methodName":"Solicitud usuarios","testSteps":[{"number":1,"description":"Given que el usuario se encuentra en la pagina de \"https://reqres.in/\"","duration":110,"startTime":"2024-05-21T17:15:20.771365600-05:00[America/Bogota]","result":"SUCCESS","precondition":false,"level":0},{"number":2,"description":"When manda una peticion de tipo get al recurso \"api/users?page\u003d2\"","duration":3991,"startTime":"2024-05-21T17:15:20.882301400-05:00[America/Bogota]","result":"SUCCESS","precondition":false,"level":0,"children":[{"number":3,"description":"Juanes do get","duration":3687,"startTime":"2024-05-21T17:15:21.185561800-05:00[America/Bogota]","result":"SUCCESS","precondition":false,"level":1,"children":[{"number":4,"description":"Juanes our get","duration":3624,"startTime":"2024-05-21T17:15:21.232984900-05:00[America/Bogota]","result":"SUCCESS","precondition":false,"level":2,"children":[{"number":5,"description":"GET https://reqres.in/api/users?page\u003d2","duration":0,"startTime":"2024-05-21T17:15:24.857634600-05:00[America/Bogota]","result":"SUCCESS","restQuery":{"method":"GET","path":"https://reqres.in/api/users?page\u003d2","content":"","contentType":"application/json","requestHeaders":"Accept\u003d*/*\r\n\t\t\t\tContent-Type\u003dapplication/json","requestCookies":"","responseHeaders":"Date: Tue, 21 May 2024 22:15:22 GMT\r\nContent-Type: application/json; charset\u003dutf-8\r\nTransfer-Encoding: chunked\r\nConnection: keep-alive\r\nReport-To: {\"group\":\"heroku-nel\",\"max_age\":3600,\"endpoints\":[{\"url\":\"https://nel.heroku.com/reports?ts\u003d1716229383\u0026sid\u003dc4c9725f-1ab0-44d8-820f-430df2718e11\u0026s\u003dKEOmxnowdqmfmp3Zzqz1fqHquMdTI0NCIz0AasqVgP0%3D\"}]}\r\nReporting-Endpoints: heroku-nel\u003dhttps://nel.heroku.com/reports?ts\u003d1716229383\u0026sid\u003dc4c9725f-1ab0-44d8-820f-430df2718e11\u0026s\u003dKEOmxnowdqmfmp3Zzqz1fqHquMdTI0NCIz0AasqVgP0%3D\r\nNel: {\"report_to\":\"heroku-nel\",\"max_age\":3600,\"success_fraction\":0.005,\"failure_fraction\":0.05,\"response_headers\":[\"Via\"]}\r\nX-Powered-By: Express\r\nAccess-Control-Allow-Origin: *\r\nEtag: W/\"406-ut0vzoCuidvyMf8arZpMpJ6ZRDw\"\r\nVia: 1.1 vegur\r\nCache-Control: max-age\u003d14400\r\nCF-Cache-Status: HIT\r\nAge: 5701\r\nVary: Accept-Encoding\r\nServer: cloudflare\r\nCF-RAY: 8877ecbc9de3dac1-MIA\r\nContent-Encoding: gzip\r","responseCookies":"\r","responseBody":"{\n    \"page\": 2,\n    \"per_page\": 6,\n    \"total\": 12,\n    \"total_pages\": 2,\n    \"data\": [\n        {\n            \"id\": 7,\n            \"email\": \"michael.lawson@reqres.in\",\n            \"first_name\": \"Michael\",\n            \"last_name\": \"Lawson\",\n            \"avatar\": \"https://reqres.in/img/faces/7-image.jpg\"\n        },\n        {\n            \"id\": 8,\n            \"email\": \"lindsay.ferguson@reqres.in\",\n            \"first_name\": \"Lindsay\",\n            \"last_name\": \"Ferguson\",\n            \"avatar\": \"https://reqres.in/img/faces/8-image.jpg\"\n        },\n        {\n            \"id\": 9,\n            \"email\": \"tobias.funke@reqres.in\",\n            \"first_name\": \"Tobias\",\n            \"last_name\": \"Funke\",\n            \"avatar\": \"https://reqres.in/img/faces/9-image.jpg\"\n        },\n        {\n            \"id\": 10,\n            \"email\": \"byron.fields@reqres.in\",\n            \"first_name\": \"Byron\",\n            \"last_name\": \"Fields\",\n            \"avatar\": \"https://reqres.in/img/faces/10-image.jpg\"\n        },\n        {\n            \"id\": 11,\n            \"email\": \"george.edwards@reqres.in\",\n            \"first_name\": \"George\",\n            \"last_name\": \"Edwards\",\n            \"avatar\": \"https://reqres.in/img/faces/11-image.jpg\"\n        },\n        {\n            \"id\": 12,\n            \"email\": \"rachel.howell@reqres.in\",\n            \"first_name\": \"Rachel\",\n            \"last_name\": \"Howell\",\n            \"avatar\": \"https://reqres.in/img/faces/12-image.jpg\"\n        }\n    ],\n    \"support\": {\n        \"url\": \"https://reqres.in/#support-heading\",\n        \"text\": \"To keep ReqRes free, contributions towards server costs are appreciated!\"\n    }\n}","statusCode":200},"precondition":false,"level":3}]}]}]},{"number":6,"description":"Then deberia observar un codigo de respuesta 200","duration":361,"startTime":"2024-05-21T17:15:24.890909600-05:00[America/Bogota]","result":"SUCCESS","precondition":false,"level":0,"children":[{"number":7,"description":"Then el codigo de respuesta should be Predicates.equalTo(200)","duration":5,"startTime":"2024-05-21T17:15:25.240010200-05:00[America/Bogota]","result":"SUCCESS","precondition":false,"level":1}]},{"number":8,"description":"And deberia obtener una lista de usuarios","duration":10,"startTime":"2024-05-21T17:15:25.268469900-05:00[America/Bogota]","result":"SUCCESS","precondition":false,"level":0}],"userStory":{"id":"getUsersRequest","storyName":"prueba del servicio GET","displayName":"prueba del servicio GET","path":"getUsersRequest","pathElements":[{"name":"getUsersRequest","description":""}],"narrative":"  yo como usuario de la pagina https://reqres.in/\n  quiero probar un servicio de tipo get\n  para obtener todos los usuarios","type":"feature"},"title":"Solicitud usuarios","description":"","tags":[{"name":"getUsers","type":"tag","displayName":"getUsers"}],"startTime":"2024-05-21T17:15:20.755323100-05:00[America/Bogota]","duration":126,"projectKey":"","isManualTestingUpToDate":false,"manual":false,"testSource":"Cucumber","actors":[{"name":"Juanes","can":["call an API at https://reqres.in/"]}],"order":0,"result":"SUCCESS"}